%TF.GenerationSoftware,KiCad,Pcbnew,(5.1.12)-1*%
%TF.CreationDate,2021-11-18T07:15:41+01:00*%
%TF.ProjectId,FlapsBoard,466c6170-7342-46f6-9172-642e6b696361,1*%
%TF.SameCoordinates,Original*%
%TF.FileFunction,Copper,L1,Top*%
%TF.FilePolarity,Positive*%
%FSLAX46Y46*%
G04 Gerber Fmt 4.6, Leading zero omitted, Abs format (unit mm)*
G04 Created by KiCad (PCBNEW (5.1.12)-1) date 2021-11-18 07:15:41*
%MOMM*%
%LPD*%
G01*
G04 APERTURE LIST*
%TA.AperFunction,ComponentPad*%
%ADD10R,3.500000X3.500000*%
%TD*%
%TA.AperFunction,ComponentPad*%
%ADD11C,1.524000*%
%TD*%
%TA.AperFunction,ComponentPad*%
%ADD12C,1.530000*%
%TD*%
%TA.AperFunction,ComponentPad*%
%ADD13R,1.530000X1.530000*%
%TD*%
%TA.AperFunction,ComponentPad*%
%ADD14O,2.500000X1.500000*%
%TD*%
%TA.AperFunction,ComponentPad*%
%ADD15R,2.500000X1.500000*%
%TD*%
%TA.AperFunction,ComponentPad*%
%ADD16C,2.000000*%
%TD*%
%TA.AperFunction,ComponentPad*%
%ADD17R,2.000000X2.000000*%
%TD*%
%TA.AperFunction,ComponentPad*%
%ADD18R,2.540000X2.540000*%
%TD*%
%TA.AperFunction,ComponentPad*%
%ADD19C,2.540000*%
%TD*%
%TA.AperFunction,ComponentPad*%
%ADD20C,1.650000*%
%TD*%
%TA.AperFunction,ComponentPad*%
%ADD21R,1.650000X1.650000*%
%TD*%
%TA.AperFunction,ComponentPad*%
%ADD22O,1.700000X1.700000*%
%TD*%
%TA.AperFunction,ComponentPad*%
%ADD23R,1.700000X1.700000*%
%TD*%
%TA.AperFunction,Conductor*%
%ADD24C,0.500000*%
%TD*%
%TA.AperFunction,Conductor*%
%ADD25C,0.250000*%
%TD*%
G04 APERTURE END LIST*
D10*
%TO.P,J0,1*%
%TO.N,Net-(J0-Pad1)*%
X221290000Y-84580400D03*
%TO.P,J0,2*%
%TO.N,GND*%
%TA.AperFunction,ComponentPad*%
G36*
G01*
X228790000Y-83580400D02*
X228790000Y-85580400D01*
G75*
G02*
X228040000Y-86330400I-750000J0D01*
G01*
X226540000Y-86330400D01*
G75*
G02*
X225790000Y-85580400I0J750000D01*
G01*
X225790000Y-83580400D01*
G75*
G02*
X226540000Y-82830400I750000J0D01*
G01*
X228040000Y-82830400D01*
G75*
G02*
X228790000Y-83580400I0J-750000D01*
G01*
G37*
%TD.AperFunction*%
%TO.P,J0,3*%
%TO.N,Net-(J0-Pad3)*%
%TA.AperFunction,ComponentPad*%
G36*
G01*
X226040000Y-79005400D02*
X226040000Y-80755400D01*
G75*
G02*
X225165000Y-81630400I-875000J0D01*
G01*
X223415000Y-81630400D01*
G75*
G02*
X222540000Y-80755400I0J875000D01*
G01*
X222540000Y-79005400D01*
G75*
G02*
X223415000Y-78130400I875000J0D01*
G01*
X225165000Y-78130400D01*
G75*
G02*
X226040000Y-79005400I0J-875000D01*
G01*
G37*
%TD.AperFunction*%
%TD*%
D11*
%TO.P,U4,6*%
%TO.N,Net-(U4-Pad6)*%
X111633000Y-104648000D03*
%TO.P,U4,5*%
%TO.N,Net-(U4-Pad5)*%
X111633000Y-102108000D03*
%TO.P,U4,4*%
%TO.N,Net-(U3-Pad33)*%
X111633000Y-99568000D03*
%TO.P,U4,3*%
%TO.N,Net-(U3-Pad36)*%
X111633000Y-97028000D03*
%TO.P,U4,2*%
%TO.N,GND*%
X111633000Y-94488000D03*
%TO.P,U4,1*%
%TO.N,+3.3V*%
X111633000Y-91948000D03*
%TD*%
D12*
%TO.P,U3,38*%
%TO.N,GND*%
X130185000Y-91059000D03*
%TO.P,U3,37*%
%TO.N,Net-(U3-Pad37)*%
X132725000Y-91059000D03*
%TO.P,U3,36*%
%TO.N,Net-(U3-Pad36)*%
X135265000Y-91059000D03*
%TO.P,U3,35*%
%TO.N,Net-(U3-Pad35)*%
X137805000Y-91059000D03*
%TO.P,U3,34*%
%TO.N,Net-(U3-Pad34)*%
X140345000Y-91059000D03*
%TO.P,U3,33*%
%TO.N,Net-(U3-Pad33)*%
X142885000Y-91059000D03*
%TO.P,U3,32*%
%TO.N,GND*%
X145425000Y-91059000D03*
%TO.P,U3,31*%
%TO.N,Net-(J6-Pad1)*%
X147965000Y-91059000D03*
%TO.P,U3,30*%
%TO.N,Net-(J5-Pad1)*%
X150505000Y-91059000D03*
%TO.P,U3,29*%
%TO.N,Net-(J4-Pad1)*%
X153045000Y-91059000D03*
%TO.P,U3,28*%
%TO.N,Net-(J3-Pad1)*%
X155585000Y-91059000D03*
%TO.P,U3,27*%
%TO.N,Net-(J2-Pad1)*%
X158125000Y-91059000D03*
%TO.P,U3,26*%
%TO.N,Net-(J1-Pad1)*%
X160665000Y-91059000D03*
%TO.P,U3,25*%
%TO.N,Net-(U3-Pad25)*%
X163205000Y-91059000D03*
%TO.P,U3,24*%
%TO.N,Net-(U3-Pad24)*%
X165745000Y-91059000D03*
%TO.P,U3,23*%
%TO.N,Net-(U3-Pad23)*%
X168285000Y-91059000D03*
%TO.P,U3,22*%
%TO.N,Net-(U3-Pad22)*%
X170825000Y-91059000D03*
%TO.P,U3,21*%
%TO.N,Net-(U3-Pad21)*%
X173365000Y-91059000D03*
%TO.P,U3,20*%
%TO.N,Net-(U3-Pad20)*%
X175905000Y-91059000D03*
%TO.P,U3,19*%
%TO.N,Net-(U3-Pad19)*%
X175905000Y-116459000D03*
%TO.P,U3,18*%
%TO.N,Net-(U3-Pad18)*%
X173365000Y-116459000D03*
%TO.P,U3,17*%
%TO.N,Net-(U3-Pad17)*%
X170825000Y-116459000D03*
%TO.P,U3,16*%
%TO.N,Net-(U3-Pad16)*%
X168285000Y-116459000D03*
%TO.P,U3,15*%
%TO.N,Net-(U3-Pad15)*%
X165745000Y-116459000D03*
%TO.P,U3,14*%
%TO.N,GND*%
X163205000Y-116459000D03*
%TO.P,U3,13*%
%TO.N,Net-(U3-Pad13)*%
X160665000Y-116459000D03*
%TO.P,U3,12*%
%TO.N,Net-(U3-Pad12)*%
X158125000Y-116459000D03*
%TO.P,U3,11*%
%TO.N,Net-(U3-Pad11)*%
X155585000Y-116459000D03*
%TO.P,U3,10*%
%TO.N,Net-(U3-Pad10)*%
X153045000Y-116459000D03*
%TO.P,U3,9*%
%TO.N,Net-(U3-Pad9)*%
X150505000Y-116459000D03*
%TO.P,U3,8*%
%TO.N,Net-(U3-Pad8)*%
X147965000Y-116459000D03*
%TO.P,U3,7*%
%TO.N,Net-(U3-Pad7)*%
X145425000Y-116459000D03*
%TO.P,U3,6*%
%TO.N,Net-(U3-Pad6)*%
X142885000Y-116459000D03*
%TO.P,U3,5*%
%TO.N,Net-(U3-Pad5)*%
X140345000Y-116459000D03*
%TO.P,U3,4*%
%TO.N,Net-(U3-Pad4)*%
X137805000Y-116459000D03*
%TO.P,U3,3*%
%TO.N,Net-(U3-Pad3)*%
X135265000Y-116459000D03*
%TO.P,U3,2*%
%TO.N,Net-(U3-Pad2)*%
X132725000Y-116459000D03*
D13*
%TO.P,U3,1*%
%TO.N,+3.3V*%
X130185000Y-116459000D03*
%TD*%
D14*
%TO.P,U1,3*%
%TO.N,+3.3V*%
X212852000Y-87376000D03*
%TO.P,U1,2*%
%TO.N,GND*%
X212852000Y-84836000D03*
D15*
%TO.P,U1,1*%
%TO.N,Net-(J0-Pad1)*%
X212852000Y-82296000D03*
%TD*%
D16*
%TO.P,C2,2*%
%TO.N,GND*%
X192024000Y-85932000D03*
D17*
%TO.P,C2,1*%
%TO.N,+3.3V*%
X192024000Y-90932000D03*
%TD*%
D18*
%TO.P,U2,1*%
%TO.N,Net-(J0-Pad1)*%
X228854000Y-117094000D03*
D19*
%TO.P,U2,2*%
%TO.N,GND*%
X228854000Y-99314000D03*
%TO.P,U2,4*%
%TO.N,+6V*%
X188214000Y-117094000D03*
%TO.P,U2,3*%
%TO.N,GND*%
X188214000Y-99314000D03*
%TD*%
D16*
%TO.P,C1,2*%
%TO.N,GND*%
X203454000Y-86534000D03*
D17*
%TO.P,C1,1*%
%TO.N,+6V*%
X203454000Y-81534000D03*
%TD*%
D20*
%TO.P,U5,7*%
%TO.N,Net-(U5-Pad7)*%
X107001000Y-97311000D03*
%TO.P,U5,6*%
%TO.N,Net-(U5-Pad6)*%
X107001000Y-94771000D03*
%TO.P,U5,5*%
%TO.N,Net-(U5-Pad5)*%
X107001000Y-92231000D03*
%TO.P,U5,4*%
%TO.N,Net-(U3-Pad33)*%
X107001000Y-89691000D03*
%TO.P,U5,3*%
%TO.N,Net-(U3-Pad36)*%
X107001000Y-87151000D03*
%TO.P,U5,2*%
%TO.N,GND*%
X107001000Y-84611000D03*
D21*
%TO.P,U5,1*%
%TO.N,+3.3V*%
X107001000Y-82071000D03*
%TD*%
D22*
%TO.P,J6,3*%
%TO.N,GND*%
X123952000Y-86106000D03*
%TO.P,J6,2*%
%TO.N,+6V*%
X121412000Y-86106000D03*
D23*
%TO.P,J6,1*%
%TO.N,Net-(J6-Pad1)*%
X118872000Y-86106000D03*
%TD*%
D22*
%TO.P,J5,3*%
%TO.N,GND*%
X134620000Y-86106000D03*
%TO.P,J5,2*%
%TO.N,+6V*%
X132080000Y-86106000D03*
D23*
%TO.P,J5,1*%
%TO.N,Net-(J5-Pad1)*%
X129540000Y-86106000D03*
%TD*%
D22*
%TO.P,J4,3*%
%TO.N,GND*%
X145288000Y-86106000D03*
%TO.P,J4,2*%
%TO.N,+6V*%
X142748000Y-86106000D03*
D23*
%TO.P,J4,1*%
%TO.N,Net-(J4-Pad1)*%
X140208000Y-86106000D03*
%TD*%
D22*
%TO.P,J3,3*%
%TO.N,GND*%
X155956000Y-86106000D03*
%TO.P,J3,2*%
%TO.N,+6V*%
X153416000Y-86106000D03*
D23*
%TO.P,J3,1*%
%TO.N,Net-(J3-Pad1)*%
X150876000Y-86106000D03*
%TD*%
D22*
%TO.P,J2,3*%
%TO.N,GND*%
X166624000Y-86106000D03*
%TO.P,J2,2*%
%TO.N,+6V*%
X164084000Y-86106000D03*
D23*
%TO.P,J2,1*%
%TO.N,Net-(J2-Pad1)*%
X161544000Y-86106000D03*
%TD*%
D22*
%TO.P,J1,3*%
%TO.N,GND*%
X177292000Y-86106000D03*
%TO.P,J1,2*%
%TO.N,+6V*%
X174752000Y-86106000D03*
D23*
%TO.P,J1,1*%
%TO.N,Net-(J1-Pad1)*%
X172212000Y-86106000D03*
%TD*%
D24*
%TO.N,Net-(J0-Pad1)*%
X219005600Y-82296000D02*
X221290000Y-84580400D01*
X212852000Y-82296000D02*
X219005600Y-82296000D01*
X221290000Y-109530000D02*
X228854000Y-117094000D01*
X221290000Y-84580400D02*
X221290000Y-109530000D01*
%TO.N,+6V*%
X130779999Y-87406001D02*
X132080000Y-86106000D01*
X122712001Y-87406001D02*
X130779999Y-87406001D01*
X121412000Y-86106000D02*
X122712001Y-87406001D01*
X200506001Y-84481999D02*
X203454000Y-81534000D01*
X176376001Y-84481999D02*
X200506001Y-84481999D01*
X174752000Y-86106000D02*
X176376001Y-84481999D01*
X165384001Y-87406001D02*
X164084000Y-86106000D01*
X173451999Y-87406001D02*
X165384001Y-87406001D01*
X174752000Y-86106000D02*
X173451999Y-87406001D01*
X154716001Y-87406001D02*
X153416000Y-86106000D01*
X162783999Y-87406001D02*
X154716001Y-87406001D01*
X164084000Y-86106000D02*
X162783999Y-87406001D01*
X152115999Y-87406001D02*
X153416000Y-86106000D01*
X144048001Y-87406001D02*
X152115999Y-87406001D01*
X142748000Y-86106000D02*
X144048001Y-87406001D01*
X141447999Y-87406001D02*
X142748000Y-86106000D01*
X133380001Y-87406001D02*
X141447999Y-87406001D01*
X132080000Y-86106000D02*
X133380001Y-87406001D01*
%TO.N,+3.3V*%
X130185000Y-116459000D02*
X131400300Y-116459000D01*
X131400300Y-116003200D02*
X132159800Y-115243700D01*
X131400300Y-116459000D02*
X131400300Y-116003200D01*
X132159800Y-115243700D02*
X162978400Y-115243700D01*
X187290100Y-90932000D02*
X162978400Y-115243700D01*
X192024000Y-90932000D02*
X187290100Y-90932000D01*
X209296000Y-90932000D02*
X212852000Y-87376000D01*
X192024000Y-90932000D02*
X209296000Y-90932000D01*
D25*
%TO.N,Net-(U3-Pad36)*%
X135265000Y-91059000D02*
X129296000Y-97028000D01*
X129296000Y-97028000D02*
X111633000Y-97028000D01*
%TO.N,Net-(U3-Pad33)*%
X110490700Y-89947500D02*
X110490700Y-98425700D01*
X110490700Y-98425700D02*
X111633000Y-99568000D01*
X107001000Y-89691000D02*
X110234200Y-89691000D01*
X110234200Y-89691000D02*
X110490700Y-89947500D01*
X142885000Y-91059000D02*
X141773500Y-89947500D01*
X141773500Y-89947500D02*
X110490700Y-89947500D01*
%TD*%
M02*
